shift_register.vcd
$timescale 1 ps $end
$scope module top $end
$var wire 1 ! __input $end
$var wire 1 " __output $end
$var wire 4 # __state $end
$upscope $end
$enddefinitions $end
#0
1!
0"
b0000 #
#1000
b0001 #
#2000
0!
b0011 #
#3000
1!
b0110 #
#4000
0!
1"
b1101 #
#5000
b1010 #
#6000
0"
b0100 #
#7000
1"
b1000 #
#8000
1!
0"
b0000 #
#9000
b0001 #
#10000
0!
b0011 #
#11000
b0110 #
#12000
1!
1"
b1100 #
#13000
b1001 #
#14000
0!
0"
b0011 #
#15000
b0110 #
#16000
1"
b1100 #
#17000
b1000 #
#18000
0"
b0000 #
